%!PS-Adobe-3.0 EPSF-3.0
%%Title: /home/viktor/risk/mews/paper/final_figures/stem.eps
%%Creator: matplotlib version 2.2.2, http://matplotlib.org/
%%CreationDate: Thu Nov 21 14:07:58 2019
%%Orientation: portrait
%%BoundingBox: -140 93 752 698
%%EndComments
%%BeginProlog
/mpldict 8 dict def
mpldict begin
/m { moveto } bind def
/l { lineto } bind def
/r { rlineto } bind def
/c { curveto } bind def
/cl { closepath } bind def
/box {
m
1 index 0 r
0 exch r
neg 0 r
cl
} bind def
/clipbox {
box
clip
newpath
} bind def
%!PS-Adobe-3.0 Resource-Font
%%Title: Liberation Sans
%%Copyright: Copyright (c) 2007 Red Hat, Inc. All rights reserved. LIBERATION is a trademark of Red Hat, Inc.
%%Creator: Converted from TrueType to type 3 by PPR
25 dict begin
/_d{bind def}bind def
/_m{moveto}_d
/_l{lineto}_d
/_cl{closepath eofill}_d
/_c{curveto}_d
/_sc{7 -1 roll{setcachedevice}{pop pop pop pop pop pop}ifelse}_d
/_e{exec}_d
/FontName /LiberationSans def
/PaintType 0 def
/FontMatrix[.001 0 0 .001 0 0]def
/FontBBox[-203 -303 1050 910]def
/FontType 3 def
/Encoding [ /uni00A0 /parenleft /parenright /uni00AD /zero /one /two /three /five /six /seven /eight /A /B /C /H /L /M /P /R /S /T /a /b /c /e /g /i /k /l /m /o /p /r /s /degree ] def
/FontInfo 10 dict dup begin
/FamilyName (Liberation Sans) def
/FullName (Liberation Sans) def
/Notice (Copyright (c) 2007 Red Hat, Inc. All rights reserved. LIBERATION is a trademark of Red Hat, Inc. Liberation is a trademark of Red Hat, Inc. registered in U.S. Patent and Trademark Office and certain other jurisdictions.) def
/Weight (Regular) def
/Version (Version 1.07.4) def
/ItalicAngle 0.0 def
/isFixedPitch false def
/UnderlinePosition -217 def
/UnderlineThickness 150 def
end readonly def
/CharStrings 37 dict dup begin
/.notdef 0 def
/uni00A0{278 0 0 0 0 0 _sc
}_d
/parenleft{333 0 62 -206 327 725 _sc
62 260 _m
62 305 65 348 72 390 _c
79 431 90 471 104 509 _c
118 547 137 583 160 619 _c
183 655 210 690 242 725 _c
327 725 _l
296 690 269 655 247 619 _c
225 583 206 546 192 508 _c
178 470 167 430 160 389 _c
153 347 150 304 150 259 _c
150 213 153 170 160 129 _c
167 87 178 48 192 10 _c
206 -28 225 -65 247 -101 _c
269 -137 296 -172 327 -206 _c
242 -206 _l
210 -172 183 -137 160 -101 _c
137 -65 118 -28 104 9 _c
90 47 79 86 72 127 _c
65 168 62 212 62 258 _c
62 260 _l
_cl}_d
/parenright{333 0 6 -206 271 725 _sc
271 258 _m
271 212 267 168 260 127 _c
253 86 242 47 228 9 _c
214 -28 195 -65 172 -101 _c
149 -137 122 -172 91 -206 _c
6 -206 _l
36 -172 63 -137 85 -101 _c
107 -65 126 -28 140 10 _c
154 48 165 87 172 129 _c
179 170 183 213 183 259 _c
183 304 179 347 172 389 _c
165 430 154 470 140 508 _c
126 546 107 583 85 619 _c
63 655 36 690 6 725 _c
91 725 _l
122 690 149 655 172 619 _c
195 583 214 547 228 509 _c
242 471 253 431 260 390 _c
267 348 271 305 271 260 _c
271 258 _l
_cl}_d
/uni00AD{333 0 44 227 289 305 _sc
44 227 _m
44 305 _l
289 305 _l
289 227 _l
44 227 _l
_cl}_d
/zero{{556 0 39 -9 517 698 _sc
517 344 _m
517 278 510 222 498 177 _c
485 132 468 96 447 68 _c
425 40 400 20 371 8 _c
341 -3 310 -9 277 -9 _c
243 -9 212 -3 183 8 _c
154 20 129 39 108 67 _c
86 95 69 131 57 177 _c
45 222 39 278 39 344 _c
39 413 45 470 57 516 _c
69 561 86 597 108 625 _c
129 652 154 671 184 682 _c
213 692 245 698 280 698 _c
}_e{312 698 343 692 372 682 _c
401 671 426 652 448 625 _c
469 597 486 561 498 516 _c
510 470 517 413 517 344 _c
428 344 _m
428 398 424 444 418 480 _c
411 516 401 545 389 567 _c
376 589 360 604 342 613 _c
324 622 303 627 280 627 _c
255 627 233 622 214 613 _c
195 604 179 589 166 567 _c
153 545 143 516 137 480 _c
131 444 128 398 128 344 _c
128 291 131 247 138 211 _c
}_e{144 175 154 146 167 124 _c
180 102 196 86 214 76 _c
232 66 254 62 278 62 _c
301 62 322 66 340 76 _c
358 86 374 102 387 124 _c
400 146 410 175 417 211 _c
424 247 428 291 428 344 _c
_cl}_e}_d
/one{556 0 76 0 507 688 _sc
76 0 _m
76 75 _l
251 75 _l
251 604 _l
96 493 _l
96 576 _l
259 688 _l
340 688 _l
340 75 _l
507 75 _l
507 0 _l
76 0 _l
_cl}_d
/two{{556 0 50 0 506 698 _sc
50 0 _m
50 62 _l
66 100 87 133 111 163 _c
135 192 160 218 186 242 _c
212 265 239 287 265 307 _c
291 327 314 348 335 368 _c
355 388 372 409 385 431 _c
398 453 405 479 405 507 _c
405 526 402 543 396 558 _c
390 573 381 586 370 596 _c
359 606 346 613 331 618 _c
315 623 298 626 279 626 _c
261 626 245 623 230 618 _c
214 613 200 606 188 596 _c
}_e{176 586 166 574 158 560 _c
150 546 146 529 144 510 _c
54 518 _l
57 542 64 566 75 588 _c
85 610 100 629 119 645 _c
137 661 160 674 187 684 _c
213 693 244 698 279 698 _c
313 698 344 694 371 686 _c
397 678 420 666 438 650 _c
456 634 470 614 480 591 _c
490 567 495 540 495 510 _c
495 486 490 464 482 444 _c
474 423 463 403 449 384 _c
435 365 419 347 401 329 _c
}_e{383 311 364 294 344 278 _c
324 261 304 244 284 228 _c
264 212 245 195 227 179 _c
209 162 194 145 180 128 _c
166 111 155 93 147 75 _c
506 75 _l
506 0 _l
50 0 _l
_cl}_e}_d
/three{{556 0 38 -9 512 698 _sc
512 190 _m
512 158 506 130 496 105 _c
486 80 471 59 451 42 _c
431 25 407 12 378 4 _c
349 -4 316 -9 279 -9 _c
236 -9 200 -4 171 6 _c
141 16 117 30 99 48 _c
80 65 66 85 56 107 _c
46 129 40 153 38 177 _c
129 185 _l
131 167 136 150 143 135 _c
150 120 160 107 172 97 _c
184 86 198 78 216 72 _c
234 66 255 63 279 63 _c
}_e{323 63 357 73 383 95 _c
408 117 421 149 421 193 _c
421 218 415 238 404 254 _c
392 269 378 281 362 290 _c
345 298 327 304 307 307 _c
287 310 269 312 253 312 _c
203 312 _l
203 388 _l
251 388 _l
267 388 285 389 303 393 _c
321 396 337 402 352 411 _c
366 420 378 432 388 448 _c
398 463 403 483 403 507 _c
403 543 392 572 370 594 _c
348 615 316 626 274 626 _c
}_e{235 626 204 616 180 596 _c
156 576 142 548 138 512 _c
50 519 _l
53 549 61 575 74 598 _c
87 620 104 639 124 654 _c
144 668 166 679 192 687 _c
218 694 245 698 275 698 _c
313 698 346 693 374 683 _c
402 673 424 660 442 644 _c
459 628 472 609 480 587 _c
488 565 493 541 493 516 _c
493 496 490 477 485 459 _c
479 441 471 426 459 412 _c
447 398 432 386 414 376 _c
}_e{396 366 374 358 349 353 _c
349 351 _l
377 348 401 342 421 332 _c
441 322 458 310 472 296 _c
485 282 495 265 502 247 _c
508 229 512 210 512 190 _c
_cl}_e}_d
/five{{556 0 40 -9 514 688 _sc
514 224 _m
514 189 508 157 498 129 _c
488 100 472 75 452 55 _c
431 34 405 18 375 7 _c
345 -3 310 -9 270 -9 _c
234 -9 202 -5 175 3 _c
148 11 125 23 107 38 _c
89 52 74 70 63 90 _c
52 110 44 131 40 154 _c
129 164 _l
132 151 137 138 144 126 _c
150 114 159 103 171 93 _c
182 83 196 76 212 70 _c
228 64 248 62 272 62 _c
}_e{294 62 315 65 334 72 _c
352 79 368 89 381 103 _c
394 117 404 134 412 154 _c
419 174 423 196 423 222 _c
423 243 419 262 412 280 _c
405 298 395 313 383 326 _c
370 339 354 349 336 356 _c
318 363 297 367 274 367 _c
259 367 245 365 233 363 _c
221 360 209 356 199 352 _c
188 348 178 343 170 337 _c
161 331 153 324 146 318 _c
60 318 _l
83 688 _l
474 688 _l
474 613 _l
}_e{163 613 _l
150 395 _l
165 407 184 417 208 426 _c
232 434 260 439 292 439 _c
326 439 356 433 384 423 _c
411 413 434 398 454 379 _c
473 360 488 337 498 311 _c
508 284 514 255 514 224 _c
_cl}_e}_d
/six{{556 0 51 -9 512 698 _sc
512 225 _m
512 190 507 158 497 130 _c
487 101 473 76 455 56 _c
436 35 413 19 385 8 _c
357 -3 326 -9 290 -9 _c
250 -9 215 -1 185 13 _c
155 28 130 50 110 79 _c
90 108 76 143 66 185 _c
56 227 51 274 51 328 _c
51 389 56 443 67 489 _c
78 535 94 574 116 605 _c
137 635 163 658 193 674 _c
223 690 258 698 297 698 _c
}_e{320 698 342 695 363 691 _c
383 686 402 678 419 667 _c
435 656 450 642 463 624 _c
475 606 485 584 493 558 _c
409 543 _l
400 572 385 593 365 607 _c
345 620 322 627 296 627 _c
272 627 250 621 230 610 _c
210 598 194 581 180 559 _c
166 536 156 507 149 473 _c
141 439 138 399 138 354 _c
154 383 176 405 205 421 _c
234 437 267 445 305 445 _c
336 445 364 440 390 430 _c
}_e{415 420 437 405 455 386 _c
473 366 487 343 497 316 _c
507 289 512 259 512 225 _c
423 221 _m
423 245 420 266 414 285 _c
408 304 399 320 387 334 _c
375 348 361 358 344 366 _c
326 373 306 377 284 377 _c
268 377 251 374 235 370 _c
219 365 204 357 191 347 _c
178 336 167 322 159 305 _c
151 287 147 266 147 242 _c
147 216 150 193 157 171 _c
163 149 173 129 185 113 _c
}_e{197 97 211 84 229 75 _c
246 65 265 61 287 61 _c
308 61 327 64 344 72 _c
360 79 374 90 386 104 _c
398 118 407 134 413 154 _c
419 174 423 196 423 221 _c
_cl}_e}_d
/seven{556 0 51 0 506 688 _sc
506 617 _m
471 564 439 513 410 465 _c
381 416 356 367 336 318 _c
315 268 299 218 287 166 _c
275 114 270 58 270 0 _c
178 0 _l
178 55 184 109 197 162 _c
210 214 228 266 250 317 _c
272 368 298 418 328 468 _c
357 517 388 565 421 613 _c
51 613 _l
51 688 _l
506 688 _l
506 617 _l
_cl}_d
/eight{{556 0 43 -9 513 698 _sc
513 192 _m
513 162 508 135 499 111 _c
489 86 475 65 456 47 _c
437 29 413 16 383 6 _c
353 -4 318 -9 278 -9 _c
238 -9 203 -4 173 6 _c
143 16 119 29 100 47 _c
80 65 66 86 57 110 _c
47 134 43 161 43 191 _c
43 216 46 238 54 258 _c
62 277 72 294 85 308 _c
98 322 113 334 129 342 _c
145 350 163 356 181 360 _c
181 362 _l
}_e{161 366 144 374 129 384 _c
113 394 101 406 91 420 _c
81 434 73 449 68 467 _c
62 484 60 502 60 522 _c
60 546 64 568 73 590 _c
82 611 96 630 114 646 _c
132 662 155 674 182 684 _c
209 693 240 698 276 698 _c
314 698 346 693 374 684 _c
401 674 424 662 442 646 _c
460 630 473 611 482 589 _c
491 567 496 545 496 521 _c
496 502 493 484 487 467 _c
}_e{481 449 474 433 464 419 _c
454 405 441 393 426 383 _c
410 373 393 367 374 363 _c
374 361 _l
393 357 411 351 428 343 _c
445 334 460 323 472 309 _c
484 295 494 278 502 258 _c
509 238 513 216 513 192 _c
404 516 _m
404 533 401 549 397 563 _c
393 577 386 590 376 600 _c
366 610 352 618 336 624 _c
320 630 300 633 276 633 _c
253 633 234 630 218 624 _c
202 618 188 610 178 600 _c
}_e{168 590 160 577 156 563 _c
151 549 149 533 149 516 _c
149 502 150 488 154 474 _c
158 460 164 447 174 435 _c
183 423 196 413 213 406 _c
229 398 251 395 277 395 _c
305 395 327 398 344 406 _c
360 413 373 423 382 435 _c
391 447 397 460 400 474 _c
402 488 404 502 404 516 _c
421 200 _m
421 216 418 232 414 248 _c
410 263 402 277 391 289 _c
380 301 365 310 346 318 _c
}_e{327 325 304 329 276 329 _c
250 329 229 325 211 318 _c
193 310 178 301 167 289 _c
155 277 147 263 142 247 _c
136 231 134 215 134 198 _c
134 177 136 158 142 140 _c
147 122 155 107 167 95 _c
178 83 193 73 212 66 _c
230 59 253 56 279 56 _c
305 56 328 59 346 66 _c
364 73 379 83 390 95 _c
401 107 409 122 414 140 _c
418 158 421 178 421 200 _c
_cl}_e}_d
/A{667 0 2 0 665 688 _sc
570 0 _m
491 201 _l
178 201 _l
99 0 _l
2 0 _l
283 688 _l
389 688 _l
665 0 _l
570 0 _l
375 501 _m
369 514 364 527 360 541 _c
355 554 351 566 347 577 _c
343 587 340 596 338 604 _c
336 611 334 616 334 618 _c
333 616 332 611 330 604 _c
328 596 325 587 321 576 _c
317 565 312 553 308 540 _c
303 526 298 513 294 500 _c
206 274 _l
463 274 _l
375 501 _l
_cl}_d
/B{{667 0 82 0 614 688 _sc
614 194 _m
614 159 607 129 593 105 _c
579 80 561 60 538 44 _c
515 28 488 17 458 10 _c
427 3 395 0 361 0 _c
82 0 _l
82 688 _l
332 688 _l
370 688 404 684 434 678 _c
464 672 489 662 510 648 _c
531 634 547 617 558 596 _c
568 575 574 550 574 521 _c
574 501 571 483 566 466 _c
560 449 552 434 541 420 _c
530 406 516 395 500 385 _c
}_e{484 375 465 367 443 363 _c
471 359 495 353 517 344 _c
538 334 556 322 570 308 _c
584 293 595 276 603 257 _c
610 237 614 216 614 194 _c
480 510 _m
480 546 467 573 442 589 _c
416 605 380 613 332 613 _c
175 613 _l
175 396 _l
332 396 _l
359 396 382 398 401 404 _c
420 409 435 416 447 426 _c
459 436 467 448 472 462 _c
477 476 480 492 480 510 _c
520 201 _m
}_e{520 223 516 241 508 257 _c
500 272 488 284 473 294 _c
458 304 440 311 419 316 _c
398 320 375 323 349 323 _c
175 323 _l
175 75 _l
356 75 _l
380 75 402 76 422 80 _c
442 84 459 91 474 101 _c
488 111 500 124 508 140 _c
516 156 520 177 520 201 _c
_cl}_e}_d
/C{{722 0 51 -9 684 698 _sc
387 622 _m
347 622 313 615 283 602 _c
253 589 227 571 207 547 _c
187 523 171 494 161 460 _c
151 426 146 388 146 347 _c
146 305 151 267 162 233 _c
173 199 189 169 210 145 _c
231 120 257 101 287 87 _c
317 73 352 67 391 67 _c
417 67 442 70 464 77 _c
486 84 505 94 523 107 _c
541 119 557 134 571 152 _c
585 169 597 188 608 210 _c
684 172 _l
}_e{672 146 656 122 638 100 _c
620 78 598 58 574 42 _c
549 26 521 13 490 4 _c
459 -4 424 -9 386 -9 _c
330 -9 282 0 240 17 _c
198 34 163 59 135 91 _c
107 123 86 160 72 204 _c
58 248 51 295 51 347 _c
51 401 58 449 73 493 _c
87 536 109 573 138 603 _c
166 633 201 657 243 673 _c
285 689 332 698 386 698 _c
459 698 520 683 569 655 _c
}_e{618 626 654 584 678 528 _c
589 499 _l
583 515 574 530 563 545 _c
551 559 537 572 521 584 _c
505 596 485 605 463 612 _c
441 618 415 622 387 622 _c
_cl}_e}_d
/H{722 0 82 0 641 688 _sc
547 0 _m
547 319 _l
175 319 _l
175 0 _l
82 0 _l
82 688 _l
175 688 _l
175 397 _l
547 397 _l
547 688 _l
641 688 _l
641 0 _l
547 0 _l
_cl}_d
/L{556 0 82 0 523 688 _sc
82 0 _m
82 688 _l
175 688 _l
175 76 _l
523 76 _l
523 0 _l
82 0 _l
_cl}_d
/M{{833 0 82 0 751 688 _sc
667 0 _m
667 459 _l
667 475 667 492 667 510 _c
667 527 668 543 669 557 _c
669 573 670 589 671 605 _c
667 589 662 572 657 556 _c
653 542 648 527 643 511 _c
638 495 633 481 628 469 _c
451 0 _l
385 0 _l
205 469 _l
203 473 201 479 199 486 _c
197 492 194 499 192 507 _c
189 514 186 521 184 529 _c
182 537 180 544 178 552 _c
172 569 166 587 162 605 _c
}_e{162 587 162 569 163 551 _c
163 535 164 519 164 503 _c
164 486 165 471 165 459 _c
165 0 _l
82 0 _l
82 688 _l
205 688 _l
388 211 _l
390 204 392 195 396 185 _c
399 175 402 164 405 154 _c
408 143 411 133 413 123 _c
415 113 417 106 418 102 _c
419 106 421 114 424 124 _c
426 134 429 144 433 155 _c
436 165 439 176 443 186 _c
446 196 449 204 452 211 _c
631 688 _l
}_e{751 688 _l
751 0 _l
667 0 _l
_cl}_e}_d
/P{667 0 82 0 614 688 _sc
614 481 _m
614 451 609 423 599 397 _c
589 371 574 348 554 329 _c
534 310 510 295 481 284 _c
451 273 417 268 377 268 _c
175 268 _l
175 0 _l
82 0 _l
82 688 _l
372 688 _l
412 688 448 683 478 673 _c
508 663 533 649 553 631 _c
573 613 589 591 599 565 _c
609 539 614 511 614 481 _c
521 480 _m
521 523 507 556 480 579 _c
453 601 413 613 360 613 _c
175 613 _l
175 342 _l
364 342 _l
418 342 457 353 483 377 _c
508 401 521 435 521 480 _c
_cl}_d
/R{{722 0 82 0 676 688 _sc
568 0 _m
390 286 _l
175 286 _l
175 0 _l
82 0 _l
82 688 _l
406 688 _l
444 688 479 683 509 674 _c
539 665 565 652 585 635 _c
605 618 621 597 632 573 _c
642 549 648 521 648 491 _c
648 469 644 447 638 426 _c
632 405 622 386 608 368 _c
594 350 577 335 556 323 _c
535 310 510 301 480 296 _c
676 0 _l
568 0 _l
555 490 _m
}_e{555 510 551 528 544 544 _c
536 559 526 572 512 582 _c
498 592 482 600 463 605 _c
443 610 421 613 396 613 _c
175 613 _l
175 359 _l
400 359 _l
426 359 449 362 469 369 _c
489 375 505 385 518 397 _c
530 409 540 422 546 438 _c
552 454 555 471 555 490 _c
_cl}_e}_d
/S{{667 0 45 -9 621 698 _sc
621 190 _m
621 160 615 133 604 109 _c
592 85 575 64 552 46 _c
528 28 499 15 463 5 _c
427 -4 385 -9 337 -9 _c
251 -9 184 5 136 35 _c
88 65 58 108 45 165 _c
136 183 _l
140 165 147 148 157 134 _c
166 119 179 106 195 96 _c
211 86 231 78 255 72 _c
279 66 307 63 340 63 _c
368 63 393 65 416 70 _c
439 74 459 81 476 91 _c
}_e{492 101 505 113 515 129 _c
524 145 529 163 529 185 _c
529 207 523 226 513 240 _c
503 254 488 265 470 274 _c
451 283 429 291 403 297 _c
377 303 349 310 318 317 _c
299 321 280 326 260 331 _c
240 336 222 342 204 349 _c
186 356 170 364 154 374 _c
138 383 125 394 114 408 _c
102 421 93 436 87 454 _c
81 471 78 491 78 514 _c
78 546 84 574 97 598 _c
}_e{110 621 128 640 152 655 _c
176 670 203 681 235 688 _c
267 694 301 698 339 698 _c
381 698 418 694 448 688 _c
478 681 504 671 525 658 _c
545 644 562 628 575 608 _c
587 588 597 566 605 540 _c
513 524 _l
508 540 501 555 493 568 _c
484 581 473 592 459 601 _c
445 609 428 616 408 621 _c
388 625 364 628 338 628 _c
306 628 279 625 257 619 _c
235 613 218 606 205 596 _c
}_e{192 586 183 575 177 562 _c
171 548 168 534 168 519 _c
168 498 173 481 183 468 _c
193 455 207 444 225 435 _c
243 426 263 419 286 413 _c
309 407 334 402 360 396 _c
381 391 402 386 423 381 _c
444 376 464 370 484 363 _c
503 356 521 348 538 338 _c
554 328 569 317 581 303 _c
593 289 603 273 610 255 _c
617 237 621 215 621 190 _c
_cl}_e}_d
/T{611 0 22 0 588 688 _sc
352 612 _m
352 0 _l
259 0 _l
259 612 _l
22 612 _l
22 688 _l
588 688 _l
588 612 _l
352 612 _l
_cl}_d
/a{{556 0 42 -9 556 538 _sc
202 -9 _m
149 -9 109 4 82 32 _c
55 60 42 98 42 147 _c
42 182 48 211 62 233 _c
75 255 92 273 114 286 _c
135 298 159 307 187 312 _c
214 316 242 319 271 320 _c
389 322 _l
389 351 _l
389 373 386 391 382 407 _c
377 422 370 434 361 444 _c
351 453 340 460 326 464 _c
312 468 295 471 276 471 _c
258 471 243 469 229 467 _c
}_e{215 465 204 460 194 454 _c
184 448 176 439 170 428 _c
164 417 160 403 158 387 _c
66 396 _l
69 416 75 435 84 453 _c
93 470 106 485 123 498 _c
139 510 160 520 186 527 _c
211 534 242 538 278 538 _c
344 538 393 522 427 492 _c
461 462 478 418 478 360 _c
478 133 _l
478 107 481 87 488 74 _c
495 60 508 54 527 54 _c
532 54 537 54 542 55 _c
546 55 551 56 556 58 _c
}_e{556 3 _l
545 1 534 0 523 -2 _c
512 -3 500 -4 488 -4 _c
471 -4 457 -2 445 2 _c
433 6 424 12 416 21 _c
408 30 403 41 399 55 _c
395 68 393 83 392 101 _c
389 101 _l
379 84 369 69 358 55 _c
346 41 333 30 318 20 _c
303 10 286 3 267 -1 _c
248 -6 226 -9 202 -9 _c
222 56 _m
250 56 274 61 295 71 _c
316 81 334 95 348 111 _c
}_e{362 127 372 144 379 163 _c
385 181 389 199 389 217 _c
389 261 _l
293 259 _l
271 258 251 256 232 254 _c
212 251 195 246 181 238 _c
166 230 154 218 146 204 _c
137 189 133 170 133 146 _c
133 117 140 95 156 79 _c
171 63 193 56 222 56 _c
_cl}_e}_d
/b{{556 0 64 -9 514 725 _sc
514 267 _m
514 83 449 -9 320 -9 _c
280 -9 246 -2 220 12 _c
193 26 171 50 155 82 _c
154 82 _l
154 73 153 64 153 55 _c
153 46 152 38 152 30 _c
151 22 150 16 150 10 _c
150 4 149 1 149 0 _c
64 0 _l
64 2 65 7 65 14 _c
65 21 66 30 66 40 _c
66 50 67 60 67 72 _c
67 84 67 96 67 109 _c
67 725 _l
155 725 _l
}_e{155 518 _l
155 508 155 498 155 490 _c
155 481 154 473 154 466 _c
154 458 153 450 153 443 _c
155 443 _l
171 477 193 501 220 516 _c
246 530 280 538 320 538 _c
386 538 435 515 467 470 _c
498 425 514 357 514 267 _c
422 264 _m
422 300 419 331 415 357 _c
410 383 403 404 393 421 _c
383 438 370 450 354 458 _c
338 466 319 470 297 470 _c
274 470 254 466 236 459 _c
}_e{218 451 203 439 191 423 _c
179 406 170 384 164 357 _c
158 330 155 297 155 258 _c
155 220 158 189 164 163 _c
170 137 179 116 191 100 _c
203 84 217 72 235 65 _c
253 58 273 55 296 55 _c
318 55 336 58 352 66 _c
367 74 380 86 391 102 _c
401 118 409 140 414 167 _c
419 193 422 226 422 264 _c
_cl}_e}_d
/c{{500 0 42 -9 474 538 _sc
134 267 _m
134 236 136 208 140 183 _c
144 157 152 135 163 117 _c
173 99 187 85 204 75 _c
221 65 242 60 268 60 _c
298 60 324 68 345 85 _c
366 101 379 127 385 163 _c
474 157 _l
470 135 464 114 454 94 _c
444 74 431 56 415 41 _c
398 25 377 13 353 4 _c
329 -4 301 -9 270 -9 _c
228 -9 193 -2 164 11 _c
135 25 112 44 94 69 _c
}_e{76 93 62 122 54 156 _c
46 189 42 225 42 265 _c
42 300 45 331 51 358 _c
57 385 65 409 76 429 _c
86 449 99 467 113 481 _c
127 495 143 506 160 514 _c
176 522 194 528 213 532 _c
231 536 250 538 269 538 _c
298 538 324 534 348 526 _c
371 518 391 506 408 492 _c
424 478 438 461 448 442 _c
458 423 466 402 471 380 _c
380 374 _l
376 402 364 425 346 443 _c
}_e{327 460 301 469 267 469 _c
241 469 220 464 204 456 _c
187 448 173 435 163 419 _c
152 402 144 381 140 356 _c
136 330 134 301 134 267 _c
_cl}_e}_d
/e{{556 0 42 -9 512 538 _sc
135 246 _m
135 218 137 192 143 169 _c
149 145 158 125 170 109 _c
182 92 197 79 215 70 _c
233 60 256 56 282 56 _c
320 56 350 63 373 79 _c
396 94 412 113 420 137 _c
498 115 _l
492 100 484 85 474 71 _c
464 56 450 43 434 31 _c
418 19 397 9 372 2 _c
347 -5 317 -9 282 -9 _c
204 -9 144 14 103 60 _c
62 106 42 176 42 268 _c
}_e{42 317 48 359 61 393 _c
73 427 90 455 112 477 _c
133 498 158 513 187 523 _c
215 533 246 538 279 538 _c
323 538 360 530 390 516 _c
420 502 444 482 462 457 _c
480 431 492 402 500 368 _c
508 334 512 297 512 257 _c
512 246 _l
135 246 _l
421 313 _m
416 368 402 408 378 434 _c
354 460 321 473 277 473 _c
262 473 247 470 231 466 _c
215 461 200 453 186 441 _c
}_e{172 429 161 412 152 392 _c
142 371 137 345 136 313 _c
421 313 _l
_cl}_e}_d
/g{{556 0 42 -207 492 537 _sc
268 -207 _m
237 -207 210 -203 187 -197 _c
163 -191 143 -182 127 -170 _c
110 -158 96 -145 86 -129 _c
76 -113 68 -95 64 -76 _c
152 -63 _l
158 -87 171 -106 191 -120 _c
211 -133 237 -140 270 -140 _c
290 -140 308 -137 324 -131 _c
340 -125 354 -116 366 -104 _c
377 -92 386 -76 392 -57 _c
398 -37 401 -14 401 13 _c
401 98 _l
400 98 _l
394 84 386 72 376 60 _c
}_e{366 48 355 37 341 27 _c
327 17 311 10 293 5 _c
275 0 254 -3 230 -3 _c
196 -3 168 2 144 13 _c
120 24 100 41 85 63 _c
70 85 59 113 52 147 _c
45 180 42 219 42 263 _c
42 305 45 343 52 377 _c
59 411 70 439 86 463 _c
102 487 122 505 148 518 _c
173 530 204 537 240 537 _c
277 537 309 528 337 511 _c
365 493 386 469 401 438 _c
402 438 _l
}_e{402 446 402 455 403 465 _c
403 475 404 484 404 493 _c
404 502 405 510 406 517 _c
406 523 407 527 408 528 _c
492 528 _l
491 525 490 520 490 513 _c
490 506 489 498 489 488 _c
489 478 489 468 489 456 _c
489 444 489 431 489 419 _c
489 15 _l
489 -58 470 -113 434 -151 _c
398 -188 342 -207 268 -207 _c
401 264 _m
401 300 397 332 389 358 _c
381 384 370 406 357 423 _c
}_e{344 439 329 451 313 459 _c
296 467 279 471 262 471 _c
239 471 220 467 204 459 _c
188 451 174 439 164 422 _c
153 405 145 384 140 358 _c
135 332 133 300 133 264 _c
133 226 135 194 140 168 _c
145 142 153 121 163 105 _c
173 89 187 78 203 71 _c
219 64 238 61 260 61 _c
278 61 295 64 312 72 _c
328 79 343 91 357 107 _c
370 123 381 144 389 170 _c
}_e{397 196 401 227 401 264 _c
_cl}_e}_d
/i{222 0 67 0 155 725 _sc
67 641 _m
67 725 _l
155 725 _l
155 641 _l
67 641 _l
67 0 _m
67 528 _l
155 528 _l
155 0 _l
67 0 _l
_cl}_d
/k{500 0 67 0 501 725 _sc
398 0 _m
220 241 _l
155 188 _l
155 0 _l
67 0 _l
67 725 _l
155 725 _l
155 272 _l
387 528 _l
490 528 _l
276 301 _l
501 0 _l
398 0 _l
_cl}_d
/l{222 0 67 0 155 725 _sc
67 0 _m
67 725 _l
155 725 _l
155 0 _l
67 0 _l
_cl}_d
/m{{833 0 66 0 767 538 _sc
375 0 _m
375 335 _l
375 361 373 382 370 399 _c
366 416 361 430 353 441 _c
345 451 335 459 323 463 _c
311 467 296 470 278 470 _c
259 470 242 466 228 459 _c
213 451 200 441 190 427 _c
179 413 171 396 165 376 _c
159 356 157 332 157 306 _c
157 0 _l
69 0 _l
69 416 _l
69 426 69 438 69 450 _c
69 462 68 474 68 485 _c
68 495 67 505 67 513 _c
}_e{67 521 66 526 66 528 _c
149 528 _l
149 526 150 522 150 515 _c
150 507 151 499 151 490 _c
151 481 152 472 152 462 _c
152 452 153 444 153 438 _c
155 438 _l
163 453 171 467 180 479 _c
189 491 200 502 212 511 _c
224 519 238 526 254 531 _c
270 535 288 538 309 538 _c
349 538 380 530 404 514 _c
427 498 443 472 453 438 _c
454 438 _l
462 453 470 467 480 479 _c
}_e{490 491 501 502 514 511 _c
527 519 542 526 558 531 _c
574 535 593 538 614 538 _c
640 538 663 534 683 527 _c
702 520 718 509 731 494 _c
743 479 752 460 758 436 _c
764 412 767 384 767 352 _c
767 0 _l
680 0 _l
680 335 _l
680 361 678 382 675 399 _c
671 416 666 430 658 441 _c
650 451 640 459 628 463 _c
616 467 601 470 583 470 _c
565 470 548 466 533 459 _c
}_e{518 452 505 442 495 428 _c
484 414 476 397 470 377 _c
464 357 462 333 462 306 _c
462 0 _l
375 0 _l
_cl}_e}_d
/o{{556 0 42 -9 514 538 _sc
514 265 _m
514 172 493 103 453 58 _c
412 13 353 -9 276 -9 _c
239 -9 206 -3 177 7 _c
148 17 124 34 104 57 _c
84 80 68 109 58 143 _c
47 177 42 218 42 265 _c
42 447 121 538 279 538 _c
319 538 355 532 385 521 _c
415 509 439 492 458 470 _c
477 447 491 418 500 384 _c
509 350 514 310 514 265 _c
422 265 _m
422 305 418 339 412 366 _c
}_e{406 392 396 414 384 430 _c
372 446 357 457 339 463 _c
321 469 302 473 280 473 _c
258 473 237 469 219 463 _c
201 456 185 445 173 429 _c
160 413 150 391 144 365 _c
137 338 134 305 134 265 _c
134 223 137 189 145 163 _c
152 136 162 115 174 99 _c
186 83 201 71 219 65 _c
236 58 255 55 275 55 _c
297 55 318 58 336 64 _c
354 70 369 82 382 98 _c
}_e{394 114 404 135 411 162 _c
418 189 422 223 422 265 _c
_cl}_e}_d
/p{{556 0 64 -207 514 538 _sc
514 267 _m
514 227 510 190 504 156 _c
498 122 487 92 472 68 _c
456 44 436 25 412 11 _c
387 -2 356 -9 320 -9 _c
282 -9 248 -2 220 12 _c
192 26 170 49 156 82 _c
153 82 _l
153 81 154 78 154 73 _c
154 67 154 61 154 53 _c
154 45 155 37 155 27 _c
155 17 155 8 155 0 _c
155 -207 _l
67 -207 _l
67 420 _l
67 432 67 445 67 457 _c
}_e{67 469 66 479 66 489 _c
66 498 65 506 65 513 _c
65 520 64 525 64 528 _c
149 528 _l
149 527 150 524 150 518 _c
150 512 151 504 152 496 _c
152 488 153 479 153 470 _c
153 460 154 451 154 443 _c
156 443 _l
164 460 173 474 184 486 _c
194 498 206 507 220 515 _c
233 523 248 528 264 532 _c
280 536 299 538 320 538 _c
356 538 387 531 412 518 _c
436 505 456 487 472 463 _c
}_e{487 439 498 411 504 378 _c
510 344 514 307 514 267 _c
422 265 _m
422 297 420 325 416 351 _c
412 377 405 398 395 416 _c
385 433 373 446 357 456 _c
341 465 321 470 297 470 _c
277 470 259 467 242 461 _c
224 455 209 445 197 429 _c
184 413 174 392 166 365 _c
158 337 155 302 155 258 _c
155 220 158 189 164 163 _c
170 137 179 116 191 100 _c
203 84 217 72 235 65 _c
}_e{253 58 273 55 296 55 _c
320 55 341 59 357 69 _c
373 78 385 92 395 110 _c
405 128 412 150 416 176 _c
420 202 422 231 422 265 _c
_cl}_e}_d
/r{{333 0 66 0 316 538 _sc
69 0 _m
69 405 _l
69 416 69 427 69 439 _c
69 451 68 462 68 473 _c
68 483 67 493 67 503 _c
67 512 66 520 66 528 _c
149 528 _l
149 520 150 512 150 502 _c
150 492 151 483 152 473 _c
152 463 153 453 153 444 _c
153 434 153 426 153 420 _c
155 420 _l
161 440 168 458 175 473 _c
182 487 190 499 200 509 _c
209 519 220 526 233 531 _c
}_e{246 535 262 538 281 538 _c
288 538 295 537 301 536 _c
307 535 312 534 316 533 _c
316 453 _l
310 454 304 455 296 456 _c
288 457 279 458 270 458 _c
249 458 232 453 218 444 _c
204 434 192 422 183 406 _c
174 390 167 370 163 348 _c
159 326 157 301 157 275 _c
157 0 _l
69 0 _l
_cl}_e}_d
/s{{500 0 28 -9 464 537 _sc
464 146 _m
464 121 459 99 449 80 _c
439 60 425 44 407 31 _c
389 17 366 7 340 1 _c
314 -5 284 -9 250 -9 _c
219 -9 191 -6 167 -2 _c
142 2 120 9 102 20 _c
83 30 67 44 55 61 _c
43 78 34 99 28 124 _c
105 139 _l
113 111 128 90 152 77 _c
175 63 208 57 250 57 _c
268 57 285 58 301 61 _c
317 63 330 68 342 74 _c
}_e{353 80 362 89 368 100 _c
374 110 378 123 378 139 _c
378 155 374 168 367 178 _c
359 188 349 197 336 204 _c
322 210 306 216 287 221 _c
268 226 247 232 225 239 _c
203 244 182 250 161 257 _c
140 264 121 273 105 284 _c
88 295 74 309 64 326 _c
54 342 49 363 49 389 _c
49 437 66 473 100 499 _c
134 524 184 537 250 537 _c
308 537 355 526 389 506 _c
}_e{423 485 445 452 455 407 _c
375 397 _l
372 411 367 422 359 432 _c
351 441 342 448 331 454 _c
319 460 307 464 293 466 _c
279 468 265 470 250 470 _c
210 470 181 464 162 452 _c
143 440 134 421 134 397 _c
134 383 137 371 144 362 _c
151 352 161 344 174 338 _c
186 332 201 326 219 322 _c
237 317 256 312 277 307 _c
291 303 305 300 320 296 _c
334 292 349 287 363 281 _c
}_e{377 275 390 268 402 261 _c
414 253 424 244 434 233 _c
443 222 450 209 456 195 _c
461 181 464 164 464 146 _c
_cl}_e}_d
/degree{{400 0 60 420 340 698 _sc
340 559 _m
340 539 336 521 329 504 _c
321 487 311 472 299 460 _c
286 448 271 438 254 431 _c
237 423 219 420 200 420 _c
180 420 162 423 145 431 _c
128 438 113 448 101 460 _c
88 472 78 487 71 504 _c
63 521 60 539 60 559 _c
60 578 63 596 71 613 _c
78 630 88 645 101 658 _c
113 670 128 680 145 687 _c
162 694 180 698 200 698 _c
}_e{219 698 237 694 254 687 _c
271 680 286 670 299 658 _c
311 645 321 630 329 613 _c
336 596 340 578 340 559 _c
287 559 _m
287 571 284 582 280 593 _c
275 603 269 613 261 621 _c
253 629 244 635 234 640 _c
223 644 212 647 200 647 _c
188 647 176 644 166 640 _c
155 635 146 629 138 621 _c
130 613 123 603 119 593 _c
115 582 113 571 113 559 _c
113 547 115 535 119 525 _c
}_e{123 514 130 505 138 497 _c
146 489 155 482 166 478 _c
176 473 188 471 200 471 _c
212 471 223 473 234 478 _c
244 482 253 489 261 497 _c
269 505 275 514 280 525 _c
284 535 287 547 287 559 _c
_cl}_e}_d
end readonly def

/BuildGlyph
 {exch begin
 CharStrings exch
 2 copy known not{pop /.notdef}if
 true 3 1 roll get exec
 end}_d

/BuildChar {
 1 index /Encoding get exch get
 1 index /BuildGlyph get exec
}_d

FontName currentdict end definefont pop
end
%%EndProlog
mpldict begin
-140.4 93.6 translate
892.8 604.8 0 0 clipbox
gsave
0 0 m
892.8 0 l
892.8 604.8 l
0 604.8 l
cl
1.000 setgray
fill
grestore
gsave
111.6 465.696 m
803.52 465.696 l
803.52 532.224 l
111.6 532.224 l
cl
1.000 setgray
fill
grestore
0.150 setgray
/LiberationSans findfont
14.000 scalefont
setfont
gsave
92.537500 474.204470 translate
0.000000 rotate
0.000000 0.000000 m /five glyphshow
7.786133 0.000000 m /zero glyphshow
grestore
gsave
84.756250 514.378383 translate
0.000000 rotate
0.000000 0.000000 m /one glyphshow
7.786133 0.000000 m /zero glyphshow
15.572266 0.000000 m /zero glyphshow
grestore
/LiberationSans findfont
13.000 scalefont
setfont
gsave
66.053125 470.788125 translate
90.000000 rotate
0.000000 0.000000 m /H glyphshow
9.388184 0.000000 m /R glyphshow
18.776367 0.000000 m /uni00A0 glyphshow
22.388184 0.000000 m /parenleft glyphshow
26.717285 0.000000 m /b glyphshow
33.947266 0.000000 m /p glyphshow
41.177246 0.000000 m /m glyphshow
52.006348 0.000000 m /parenright glyphshow
grestore
gsave
691.9 66.53 111.6 465.7 clipbox
312.926469 439.10087 m
435.574852 439.10087 l
435.574852 532.224 l
312.926469 532.224 l
cl
0.580 0.404 0.741 setrgbcolor
fill
grestore
gsave
691.9 66.53 111.6 465.7 clipbox
680.871617 439.10087 m
803.52 439.10087 l
803.52 532.224 l
680.871617 532.224 l
cl
0.580 0.404 0.741 setrgbcolor
fill
grestore
gsave
691.9 66.53 111.6 465.7 clipbox
111.6 480.078261 m
780.612859 480.078261 l
780.612859 519.448696 l
111.6 519.448696 l
cl
0.173 0.627 0.173 setrgbcolor
fill
grestore
1.500 setlinewidth
1 setlinejoin
1 setlinecap
[] 0 setdash
0.173 0.627 0.173 setrgbcolor
gsave
691.9 66.53 111.6 465.7 clipbox
111.6 480.078261 m
780.612859 480.078261 l
stroke
grestore
gsave
691.9 66.53 111.6 465.7 clipbox
111.6 519.448696 m
780.612859 519.448696 l
stroke
grestore
1.000 setlinewidth
0 setlinecap
0.839 0.153 0.157 setrgbcolor
gsave
691.9 66.53 111.6 465.7 clipbox
/o {
gsave
newpath
translate
1.0 setlinewidth
1 setlinejoin
0 setlinecap
0 -3 m
0.795609 -3 1.55874 -2.683901 2.12132 -2.12132 c
2.683901 -1.55874 3 -0.795609 3 0 c
3 0.795609 2.683901 1.55874 2.12132 2.12132 c
1.55874 2.683901 0.795609 3 0 3 c
-0.795609 3 -1.55874 2.683901 -2.12132 2.12132 c
-2.683901 1.55874 -3 0.795609 -3 0 c
-3 -0.795609 -2.683901 -1.55874 -2.12132 -2.12132 c
-1.55874 -2.683901 -0.795609 -3 0 -3 c
cl

gsave
0.839 0.153 0.157 setrgbcolor
fill
grestore
stroke
grestore
} bind def
172.924 497.755 o
grestore
1.500 setlinewidth
[5.55 2.4] 0 setdash
gsave
691.9 66.53 111.6 465.7 clipbox
172.924191 439.10087 m
172.924191 497.754783 l
stroke
grestore
1.000 setlinewidth
[] 0 setdash
gsave
691.9 66.53 111.6 465.7 clipbox
/o {
gsave
newpath
translate
1.0 setlinewidth
1 setlinejoin
0 setlinecap
0 -3 m
0.795609 -3 1.55874 -2.683901 2.12132 -2.12132 c
2.683901 -1.55874 3 -0.795609 3 0 c
3 0.795609 2.683901 1.55874 2.12132 2.12132 c
1.55874 2.683901 0.795609 3 0 3 c
-0.795609 3 -1.55874 2.683901 -2.12132 2.12132 c
-2.683901 1.55874 -3 0.795609 -3 0 c
-3 -0.795609 -2.683901 -1.55874 -2.12132 -2.12132 c
-1.55874 -2.683901 -0.795609 -3 0 -3 c
cl

gsave
0.839 0.153 0.157 setrgbcolor
fill
grestore
stroke
grestore
} bind def
142.262 497.755 o
230.416 480.078 o
grestore
1.500 setlinewidth
1 setlinecap
gsave
691.9 66.53 111.6 465.7 clipbox
142.262096 439.10087 m
142.262096 497.754783 l
stroke
grestore
gsave
691.9 66.53 111.6 465.7 clipbox
230.415621 439.10087 m
230.415621 480.078261 l
stroke
grestore
1.000 setlinewidth
0 setlinecap
gsave
691.9 66.53 111.6 465.7 clipbox
/o {
gsave
newpath
translate
1.0 setlinewidth
1 setlinejoin
0 setlinecap
0 -3 m
0.795609 -3 1.55874 -2.683901 2.12132 -2.12132 c
2.683901 -1.55874 3 -0.795609 3 0 c
3 0.795609 2.683901 1.55874 2.12132 2.12132 c
1.55874 2.683901 0.795609 3 0 3 c
-0.795609 3 -1.55874 2.683901 -2.12132 2.12132 c
-2.683901 1.55874 -3 0.795609 -3 0 c
-3 -0.795609 -2.683901 -1.55874 -2.12132 -2.12132 c
-1.55874 -2.683901 -0.795609 -3 0 -3 c
cl

gsave
0.839 0.153 0.157 setrgbcolor
fill
grestore
stroke
grestore
} bind def
318.122 496.951 o
361.875 498.558 o
426.87 498.558 o
grestore
1.500 setlinewidth
1 setlinecap
gsave
691.9 66.53 111.6 465.7 clipbox
318.121991 439.10087 m
318.121991 496.951304 l
stroke
grestore
gsave
691.9 66.53 111.6 465.7 clipbox
361.875098 439.10087 m
361.875098 498.558261 l
stroke
grestore
gsave
691.9 66.53 111.6 465.7 clipbox
426.870223 439.10087 m
426.870223 498.558261 l
stroke
grestore
1.000 setlinewidth
0 setlinecap
gsave
691.9 66.53 111.6 465.7 clipbox
/o {
gsave
newpath
translate
1.0 setlinewidth
1 setlinejoin
0 setlinecap
0 -3 m
0.795609 -3 1.55874 -2.683901 2.12132 -2.12132 c
2.683901 -1.55874 3 -0.795609 3 0 c
3 0.795609 2.683901 1.55874 2.12132 2.12132 c
1.55874 2.683901 0.795609 3 0 3 c
-0.795609 3 -1.55874 2.683901 -2.12132 2.12132 c
-2.683901 1.55874 -3 0.795609 -3 0 c
-3 -0.795609 -2.683901 -1.55874 -2.12132 -2.12132 c
-1.55874 -2.683901 -0.795609 -3 0 -3 c
cl

gsave
0.839 0.153 0.157 setrgbcolor
fill
grestore
stroke
grestore
} bind def
485.712 505.79 o
508.981 498.558 o
grestore
1.500 setlinewidth
1 setlinecap
gsave
691.9 66.53 111.6 465.7 clipbox
485.711637 439.10087 m
485.711637 505.789565 l
stroke
grestore
gsave
691.9 66.53 111.6 465.7 clipbox
508.98076 439.10087 m
508.98076 498.558261 l
stroke
grestore
1.000 setlinewidth
0 setlinecap
gsave
691.9 66.53 111.6 465.7 clipbox
/o {
gsave
newpath
translate
1.0 setlinewidth
1 setlinejoin
0 setlinecap
0 -3 m
0.795609 -3 1.55874 -2.683901 2.12132 -2.12132 c
2.683901 -1.55874 3 -0.795609 3 0 c
3 0.795609 2.683901 1.55874 2.12132 2.12132 c
1.55874 2.683901 0.795609 3 0 3 c
-0.795609 3 -1.55874 2.683901 -2.12132 2.12132 c
-2.683901 1.55874 -3 0.795609 -3 0 c
-3 -0.795609 -2.683901 -1.55874 -2.12132 -2.12132 c
-1.55874 -2.683901 -0.795609 -3 0 -3 c
cl

gsave
0.839 0.153 0.157 setrgbcolor
fill
grestore
stroke
grestore
} bind def
594.971 508.2 o
693.107 513.021 o
739.296 525.877 o
749.951 526.68 o
grestore
1.500 setlinewidth
1 setlinecap
gsave
691.9 66.53 111.6 465.7 clipbox
594.970904 439.10087 m
594.970904 508.2 l
stroke
grestore
gsave
691.9 66.53 111.6 465.7 clipbox
693.106645 439.10087 m
693.106645 513.02087 l
stroke
grestore
gsave
691.9 66.53 111.6 465.7 clipbox
739.295685 439.10087 m
739.295685 525.876522 l
stroke
grestore
gsave
691.9 66.53 111.6 465.7 clipbox
749.950764 439.10087 m
749.950764 526.68 l
stroke
grestore
1.250 setlinewidth
0 setlinejoin
2 setlinecap
[] 0 setdash
0.150 setgray
gsave
111.6 465.696 m
111.6 532.224 l
stroke
grestore
gsave
111.6 465.696 m
803.52 465.696 l
stroke
grestore
gsave
111.6 385.8624 m
803.52 385.8624 l
803.52 452.3904 l
111.6 452.3904 l
cl
1.000 setgray
fill
grestore
/LiberationSans findfont
14.000 scalefont
setfont
gsave
92.537500 395.912088 translate
0.000000 rotate
0.000000 0.000000 m /one glyphshow
7.786133 0.000000 m /five glyphshow
grestore
gsave
92.537500 426.152088 translate
0.000000 rotate
0.000000 0.000000 m /two glyphshow
7.786133 0.000000 m /five glyphshow
grestore
/LiberationSans findfont
13.000 scalefont
setfont
gsave
64.834375 390.954525 translate
90.000000 rotate
0.000000 0.000000 m /R glyphshow
9.388184 0.000000 m /R glyphshow
18.776367 0.000000 m /uni00A0 glyphshow
22.388184 0.000000 m /parenleft glyphshow
26.717285 0.000000 m /b glyphshow
33.947266 0.000000 m /p glyphshow
41.177246 0.000000 m /m glyphshow
52.006348 0.000000 m /parenright glyphshow
grestore
gsave
691.9 66.53 111.6 385.9 clipbox
312.926469 355.6224 m
435.574852 355.6224 l
435.574852 450.576 l
312.926469 450.576 l
cl
0.580 0.404 0.741 setrgbcolor
fill
grestore
gsave
691.9 66.53 111.6 385.9 clipbox
680.871617 355.6224 m
803.52 355.6224 l
803.52 450.576 l
680.871617 450.576 l
cl
0.580 0.404 0.741 setrgbcolor
fill
grestore
gsave
691.9 66.53 111.6 385.9 clipbox
111.6 382.8384 m
780.612859 382.8384 l
780.612859 397.9584 l
111.6 397.9584 l
cl
0.173 0.627 0.173 setrgbcolor
fill
grestore
1.500 setlinewidth
1 setlinejoin
1 setlinecap
[] 0 setdash
0.173 0.627 0.173 setrgbcolor
gsave
691.9 66.53 111.6 385.9 clipbox
111.6 382.8384 m
780.612859 382.8384 l
stroke
grestore
gsave
691.9 66.53 111.6 385.9 clipbox
111.6 397.9584 m
780.612859 397.9584 l
stroke
grestore
1.000 setlinewidth
0 setlinecap
0.839 0.153 0.157 setrgbcolor
gsave
691.9 66.53 111.6 385.9 clipbox
/o {
gsave
newpath
translate
1.0 setlinewidth
1 setlinejoin
0 setlinecap
0 -3 m
0.795609 -3 1.55874 -2.683901 2.12132 -2.12132 c
2.683901 -1.55874 3 -0.795609 3 0 c
3 0.795609 2.683901 1.55874 2.12132 2.12132 c
1.55874 2.683901 0.795609 3 0 3 c
-0.795609 3 -1.55874 2.683901 -2.12132 2.12132 c
-2.683901 1.55874 -3 0.795609 -3 0 c
-3 -0.795609 -2.683901 -1.55874 -2.12132 -2.12132 c
-1.55874 -2.683901 -0.795609 -3 0 -3 c
cl

gsave
0.839 0.153 0.157 setrgbcolor
fill
grestore
stroke
grestore
} bind def
172.924 410.054 o
grestore
1.500 setlinewidth
1 setlinecap
gsave
691.9 66.53 111.6 385.9 clipbox
172.924191 355.6224 m
172.924191 410.0544 l
stroke
grestore
1.000 setlinewidth
0 setlinecap
gsave
691.9 66.53 111.6 385.9 clipbox
/o {
gsave
newpath
translate
1.0 setlinewidth
1 setlinejoin
0 setlinecap
0 -3 m
0.795609 -3 1.55874 -2.683901 2.12132 -2.12132 c
2.683901 -1.55874 3 -0.795609 3 0 c
3 0.795609 2.683901 1.55874 2.12132 2.12132 c
1.55874 2.683901 0.795609 3 0 3 c
-0.795609 3 -1.55874 2.683901 -2.12132 2.12132 c
-2.683901 1.55874 -3 0.795609 -3 0 c
-3 -0.795609 -2.683901 -1.55874 -2.12132 -2.12132 c
-1.55874 -2.683901 -0.795609 -3 0 -3 c
cl

gsave
0.839 0.153 0.157 setrgbcolor
fill
grestore
stroke
grestore
} bind def
142.262 410.054 o
230.416 410.054 o
grestore
1.500 setlinewidth
1 setlinecap
gsave
691.9 66.53 111.6 385.9 clipbox
142.262096 355.6224 m
142.262096 410.0544 l
stroke
grestore
gsave
691.9 66.53 111.6 385.9 clipbox
230.415621 355.6224 m
230.415621 410.0544 l
stroke
grestore
1.000 setlinewidth
0 setlinecap
gsave
691.9 66.53 111.6 385.9 clipbox
/o {
gsave
newpath
translate
1.0 setlinewidth
1 setlinejoin
0 setlinecap
0 -3 m
0.795609 -3 1.55874 -2.683901 2.12132 -2.12132 c
2.683901 -1.55874 3 -0.795609 3 0 c
3 0.795609 2.683901 1.55874 2.12132 2.12132 c
1.55874 2.683901 0.795609 3 0 3 c
-0.795609 3 -1.55874 2.683901 -2.12132 2.12132 c
-2.683901 1.55874 -3 0.795609 -3 0 c
-3 -0.795609 -2.683901 -1.55874 -2.12132 -2.12132 c
-1.55874 -2.683901 -0.795609 -3 0 -3 c
cl

gsave
0.839 0.153 0.157 setrgbcolor
fill
grestore
stroke
grestore
} bind def
318.122 410.054 o
361.875 416.102 o
426.87 410.054 o
grestore
1.500 setlinewidth
1 setlinecap
gsave
691.9 66.53 111.6 385.9 clipbox
318.121991 355.6224 m
318.121991 410.0544 l
stroke
grestore
gsave
691.9 66.53 111.6 385.9 clipbox
361.875098 355.6224 m
361.875098 416.1024 l
stroke
grestore
gsave
691.9 66.53 111.6 385.9 clipbox
426.870223 355.6224 m
426.870223 410.0544 l
stroke
grestore
1.000 setlinewidth
0 setlinecap
gsave
691.9 66.53 111.6 385.9 clipbox
/o {
gsave
newpath
translate
1.0 setlinewidth
1 setlinejoin
0 setlinecap
0 -3 m
0.795609 -3 1.55874 -2.683901 2.12132 -2.12132 c
2.683901 -1.55874 3 -0.795609 3 0 c
3 0.795609 2.683901 1.55874 2.12132 2.12132 c
1.55874 2.683901 0.795609 3 0 3 c
-0.795609 3 -1.55874 2.683901 -2.12132 2.12132 c
-2.683901 1.55874 -3 0.795609 -3 0 c
-3 -0.795609 -2.683901 -1.55874 -2.12132 -2.12132 c
-1.55874 -2.683901 -0.795609 -3 0 -3 c
cl

gsave
0.839 0.153 0.157 setrgbcolor
fill
grestore
stroke
grestore
} bind def
485.712 410.054 o
508.981 410.054 o
grestore
1.500 setlinewidth
1 setlinecap
gsave
691.9 66.53 111.6 385.9 clipbox
485.711637 355.6224 m
485.711637 410.0544 l
stroke
grestore
gsave
691.9 66.53 111.6 385.9 clipbox
508.98076 355.6224 m
508.98076 410.0544 l
stroke
grestore
1.000 setlinewidth
0 setlinecap
gsave
691.9 66.53 111.6 385.9 clipbox
/o {
gsave
newpath
translate
1.0 setlinewidth
1 setlinejoin
0 setlinecap
0 -3 m
0.795609 -3 1.55874 -2.683901 2.12132 -2.12132 c
2.683901 -1.55874 3 -0.795609 3 0 c
3 0.795609 2.683901 1.55874 2.12132 2.12132 c
1.55874 2.683901 0.795609 3 0 3 c
-0.795609 3 -1.55874 2.683901 -2.12132 2.12132 c
-2.683901 1.55874 -3 0.795609 -3 0 c
-3 -0.795609 -2.683901 -1.55874 -2.12132 -2.12132 c
-1.55874 -2.683901 -0.795609 -3 0 -3 c
cl

gsave
0.839 0.153 0.157 setrgbcolor
fill
grestore
stroke
grestore
} bind def
594.971 410.054 o
693.107 407.03 o
739.296 407.03 o
749.951 446.342 o
grestore
1.500 setlinewidth
1 setlinecap
gsave
691.9 66.53 111.6 385.9 clipbox
594.970904 355.6224 m
594.970904 410.0544 l
stroke
grestore
gsave
691.9 66.53 111.6 385.9 clipbox
693.106645 355.6224 m
693.106645 407.0304 l
stroke
grestore
gsave
691.9 66.53 111.6 385.9 clipbox
739.295685 355.6224 m
739.295685 407.0304 l
stroke
grestore
gsave
691.9 66.53 111.6 385.9 clipbox
749.950764 355.6224 m
749.950764 446.3424 l
stroke
grestore
1.250 setlinewidth
0 setlinejoin
2 setlinecap
[] 0 setdash
0.150 setgray
gsave
111.6 385.8624 m
111.6 452.3904 l
stroke
grestore
gsave
111.6 385.8624 m
803.52 385.8624 l
stroke
grestore
gsave
111.6 306.0288 m
803.52 306.0288 l
803.52 372.5568 l
111.6 372.5568 l
cl
1.000 setgray
fill
grestore
/LiberationSans findfont
14.000 scalefont
setfont
gsave
92.537500 318.174066 translate
0.000000 rotate
0.000000 0.000000 m /three glyphshow
7.786133 0.000000 m /seven glyphshow
grestore
gsave
92.537500 347.353014 translate
0.000000 rotate
0.000000 0.000000 m /three glyphshow
7.786133 0.000000 m /eight glyphshow
grestore
/LiberationSans findfont
13.000 scalefont
setfont
gsave
64.834375 310.699050 translate
90.000000 rotate
0.000000 0.000000 m /T glyphshow
7.940918 0.000000 m /m glyphshow
18.770020 0.000000 m /p glyphshow
26.000000 0.000000 m /r glyphshow
30.329102 0.000000 m /uni00A0 glyphshow
33.940918 0.000000 m /parenleft glyphshow
38.270020 0.000000 m /degree glyphshow
43.468750 0.000000 m /C glyphshow
52.856934 0.000000 m /parenright glyphshow
grestore
gsave
691.9 66.53 111.6 306 clipbox
312.926469 -756.376674 m
435.574852 -756.376674 l
435.574852 372.5568 l
312.926469 372.5568 l
cl
0.580 0.404 0.741 setrgbcolor
fill
grestore
gsave
691.9 66.53 111.6 306 clipbox
680.871617 -756.376674 m
803.52 -756.376674 l
803.52 372.5568 l
680.871617 372.5568 l
cl
0.580 0.404 0.741 setrgbcolor
fill
grestore
gsave
691.9 66.53 111.6 306 clipbox
111.6 264.886484 m
780.612859 264.886484 l
780.612859 364.094905 l
111.6 364.094905 l
cl
0.173 0.627 0.173 setrgbcolor
fill
grestore
1.500 setlinewidth
1 setlinejoin
1 setlinecap
[] 0 setdash
0.173 0.627 0.173 setrgbcolor
gsave
691.9 66.53 111.6 306 clipbox
111.6 264.886484 m
780.612859 264.886484 l
stroke
grestore
gsave
691.9 66.53 111.6 306 clipbox
111.6 364.094905 m
780.612859 364.094905 l
stroke
grestore
1.000 setlinewidth
0 setlinecap
0.839 0.153 0.157 setrgbcolor
gsave
691.9 66.53 111.6 306 clipbox
/o {
gsave
newpath
translate
1.0 setlinewidth
1 setlinejoin
0 setlinecap
0 -3 m
0.795609 -3 1.55874 -2.683901 2.12132 -2.12132 c
2.683901 -1.55874 3 -0.795609 3 0 c
3 0.795609 2.683901 1.55874 2.12132 2.12132 c
1.55874 2.683901 0.795609 3 0 3 c
-0.795609 3 -1.55874 2.683901 -2.12132 2.12132 c
-2.683901 1.55874 -3 0.795609 -3 0 c
-3 -0.795609 -2.683901 -1.55874 -2.12132 -2.12132 c
-1.55874 -2.683901 -0.795609 -3 0 -3 c
cl

gsave
0.839 0.153 0.157 setrgbcolor
fill
grestore
stroke
grestore
} bind def
172.924 314.491 o
grestore
1.500 setlinewidth
1 setlinecap
gsave
691.9 66.53 111.6 306 clipbox
172.924191 -1 m
172.924191 314.490695 l
stroke
grestore
1.000 setlinewidth
0 setlinecap
gsave
691.9 66.53 111.6 306 clipbox
/o {
gsave
newpath
translate
1.0 setlinewidth
1 setlinejoin
0 setlinecap
0 -3 m
0.795609 -3 1.55874 -2.683901 2.12132 -2.12132 c
2.683901 -1.55874 3 -0.795609 3 0 c
3 0.795609 2.683901 1.55874 2.12132 2.12132 c
1.55874 2.683901 0.795609 3 0 3 c
-0.795609 3 -1.55874 2.683901 -2.12132 2.12132 c
-2.683901 1.55874 -3 0.795609 -3 0 c
-3 -0.795609 -2.683901 -1.55874 -2.12132 -2.12132 c
-1.55874 -2.683901 -0.795609 -3 0 -3 c
cl

gsave
0.839 0.153 0.157 setrgbcolor
fill
grestore
stroke
grestore
} bind def
142.262 314.491 o
230.416 314.491 o
grestore
1.500 setlinewidth
1 setlinecap
gsave
691.9 66.53 111.6 306 clipbox
142.262096 -1 m
142.262096 314.490695 l
stroke
grestore
gsave
691.9 66.53 111.6 306 clipbox
230.415621 -1 m
230.415621 314.490695 l
stroke
grestore
1.000 setlinewidth
0 setlinecap
gsave
691.9 66.53 111.6 306 clipbox
/o {
gsave
newpath
translate
1.0 setlinewidth
1 setlinejoin
0 setlinecap
0 -3 m
0.795609 -3 1.55874 -2.683901 2.12132 -2.12132 c
2.683901 -1.55874 3 -0.795609 3 0 c
3 0.795609 2.683901 1.55874 2.12132 2.12132 c
1.55874 2.683901 0.795609 3 0 3 c
-0.795609 3 -1.55874 2.683901 -2.12132 2.12132 c
-2.683901 1.55874 -3 0.795609 -3 0 c
-3 -0.795609 -2.683901 -1.55874 -2.12132 -2.12132 c
-1.55874 -2.683901 -0.795609 -3 0 -3 c
cl

gsave
0.839 0.153 0.157 setrgbcolor
fill
grestore
stroke
grestore
} bind def
318.122 314.491 o
361.875 320.326 o
426.87 320.326 o
grestore
1.500 setlinewidth
1 setlinecap
gsave
691.9 66.53 111.6 306 clipbox
318.121991 -1 m
318.121991 314.490695 l
stroke
grestore
gsave
691.9 66.53 111.6 306 clipbox
361.875098 -1 m
361.875098 320.326484 l
stroke
grestore
gsave
691.9 66.53 111.6 306 clipbox
426.870223 -1 m
426.870223 320.326484 l
stroke
grestore
1.000 setlinewidth
0 setlinecap
gsave
691.9 66.53 111.6 306 clipbox
/o {
gsave
newpath
translate
1.0 setlinewidth
1 setlinejoin
0 setlinecap
0 -3 m
0.795609 -3 1.55874 -2.683901 2.12132 -2.12132 c
2.683901 -1.55874 3 -0.795609 3 0 c
3 0.795609 2.683901 1.55874 2.12132 2.12132 c
1.55874 2.683901 0.795609 3 0 3 c
-0.795609 3 -1.55874 2.683901 -2.12132 2.12132 c
-2.683901 1.55874 -3 0.795609 -3 0 c
-3 -0.795609 -2.683901 -1.55874 -2.12132 -2.12132 c
-1.55874 -2.683901 -0.795609 -3 0 -3 c
cl

gsave
0.839 0.153 0.157 setrgbcolor
fill
grestore
stroke
grestore
} bind def
485.712 320.326 o
508.981 326.162 o
grestore
1.500 setlinewidth
1 setlinecap
gsave
691.9 66.53 111.6 306 clipbox
485.711637 -1 m
485.711637 320.326484 l
stroke
grestore
gsave
691.9 66.53 111.6 306 clipbox
508.98076 -1 m
508.98076 326.162274 l
stroke
grestore
1.000 setlinewidth
0 setlinecap
gsave
691.9 66.53 111.6 306 clipbox
/o {
gsave
newpath
translate
1.0 setlinewidth
1 setlinejoin
0 setlinecap
0 -3 m
0.795609 -3 1.55874 -2.683901 2.12132 -2.12132 c
2.683901 -1.55874 3 -0.795609 3 0 c
3 0.795609 2.683901 1.55874 2.12132 2.12132 c
1.55874 2.683901 0.795609 3 0 3 c
-0.795609 3 -1.55874 2.683901 -2.12132 2.12132 c
-2.683901 1.55874 -3 0.795609 -3 0 c
-3 -0.795609 -2.683901 -1.55874 -2.12132 -2.12132 c
-1.55874 -2.683901 -0.795609 -3 0 -3 c
cl

gsave
0.839 0.153 0.157 setrgbcolor
fill
grestore
stroke
grestore
} bind def
594.971 334.916 o
693.107 334.916 o
739.296 367.013 o
749.951 367.013 o
grestore
1.500 setlinewidth
1 setlinecap
gsave
691.9 66.53 111.6 306 clipbox
594.970904 -1 m
594.970904 334.915958 l
stroke
grestore
gsave
691.9 66.53 111.6 306 clipbox
693.106645 -1 m
693.106645 334.915958 l
stroke
grestore
gsave
691.9 66.53 111.6 306 clipbox
739.295685 -1 m
739.295685 367.0128 l
stroke
grestore
gsave
691.9 66.53 111.6 306 clipbox
749.950764 -1 m
749.950764 367.0128 l
stroke
grestore
1.250 setlinewidth
0 setlinejoin
2 setlinecap
[] 0 setdash
0.150 setgray
gsave
111.6 306.0288 m
111.6 372.5568 l
stroke
grestore
gsave
111.6 306.0288 m
803.52 306.0288 l
stroke
grestore
gsave
111.6 226.1952 m
803.52 226.1952 l
803.52 292.7232 l
111.6 292.7232 l
cl
1.000 setgray
fill
grestore
/LiberationSans findfont
14.000 scalefont
setfont
gsave
84.756250 243.541931 translate
0.000000 rotate
0.000000 0.000000 m /one glyphshow
7.786133 0.000000 m /zero glyphshow
15.572266 0.000000 m /zero glyphshow
grestore
gsave
84.756250 273.672366 translate
0.000000 rotate
0.000000 0.000000 m /one glyphshow
7.786133 0.000000 m /five glyphshow
15.572266 0.000000 m /zero glyphshow
grestore
/LiberationSans findfont
13.000 scalefont
setfont
gsave
66.053125 225.513888 translate
90.000000 rotate
0.000000 0.000000 m /B glyphshow
8.670898 0.000000 m /P glyphshow
17.341797 0.000000 m /uni00A0 glyphshow
20.953613 0.000000 m /parenleft glyphshow
25.282715 0.000000 m /m glyphshow
36.111816 0.000000 m /m glyphshow
46.940918 0.000000 m /H glyphshow
56.329102 0.000000 m /g glyphshow
63.559082 0.000000 m /parenright glyphshow
grestore
gsave
691.9 66.53 111.6 226.2 clipbox
312.926469 188.351374 m
435.574852 188.351374 l
435.574852 292.7232 l
312.926469 292.7232 l
cl
0.580 0.404 0.741 setrgbcolor
fill
grestore
gsave
691.9 66.53 111.6 226.2 clipbox
680.871617 188.351374 m
803.52 188.351374 l
803.52 292.7232 l
680.871617 292.7232 l
cl
0.580 0.404 0.741 setrgbcolor
fill
grestore
gsave
691.9 66.53 111.6 226.2 clipbox
111.6 249.214852 m
780.612859 249.214852 l
780.612859 308.270504 l
111.6 308.270504 l
cl
0.173 0.627 0.173 setrgbcolor
fill
grestore
1.500 setlinewidth
1 setlinejoin
1 setlinecap
[] 0 setdash
0.173 0.627 0.173 setrgbcolor
gsave
691.9 66.53 111.6 226.2 clipbox
111.6 249.214852 m
780.612859 249.214852 l
stroke
grestore
gsave
691.9 66.53 111.6 226.2 clipbox
111.6 308.270504 m
780.612859 308.270504 l
stroke
grestore
1.000 setlinewidth
0 setlinecap
0.839 0.153 0.157 setrgbcolor
gsave
691.9 66.53 111.6 226.2 clipbox
/o {
gsave
newpath
translate
1.0 setlinewidth
1 setlinejoin
0 setlinecap
0 -3 m
0.795609 -3 1.55874 -2.683901 2.12132 -2.12132 c
2.683901 -1.55874 3 -0.795609 3 0 c
3 0.795609 2.683901 1.55874 2.12132 2.12132 c
1.55874 2.683901 0.795609 3 0 3 c
-0.795609 3 -1.55874 2.683901 -2.12132 2.12132 c
-2.683901 1.55874 -3 0.795609 -3 0 c
-3 -0.795609 -2.683901 -1.55874 -2.12132 -2.12132 c
-1.55874 -2.683901 -0.795609 -3 0 -3 c
cl

gsave
0.839 0.153 0.157 setrgbcolor
fill
grestore
stroke
grestore
} bind def
172.924 249.215 o
grestore
1.500 setlinewidth
1 setlinecap
gsave
691.9 66.53 111.6 226.2 clipbox
172.924191 188.351374 m
172.924191 249.214852 l
stroke
grestore
1.000 setlinewidth
0 setlinecap
gsave
691.9 66.53 111.6 226.2 clipbox
/o {
gsave
newpath
translate
1.0 setlinewidth
1 setlinejoin
0 setlinecap
0 -3 m
0.795609 -3 1.55874 -2.683901 2.12132 -2.12132 c
2.683901 -1.55874 3 -0.795609 3 0 c
3 0.795609 2.683901 1.55874 2.12132 2.12132 c
1.55874 2.683901 0.795609 3 0 3 c
-0.795609 3 -1.55874 2.683901 -2.12132 2.12132 c
-2.683901 1.55874 -3 0.795609 -3 0 c
-3 -0.795609 -2.683901 -1.55874 -2.12132 -2.12132 c
-1.55874 -2.683901 -0.795609 -3 0 -3 c
cl

gsave
0.839 0.153 0.157 setrgbcolor
fill
grestore
stroke
grestore
} bind def
142.262 249.215 o
230.416 248.612 o
grestore
1.500 setlinewidth
1 setlinecap
gsave
691.9 66.53 111.6 226.2 clipbox
142.262096 188.351374 m
142.262096 249.214852 l
stroke
grestore
gsave
691.9 66.53 111.6 226.2 clipbox
230.415621 188.351374 m
230.415621 248.612243 l
stroke
grestore
1.000 setlinewidth
0 setlinecap
gsave
691.9 66.53 111.6 226.2 clipbox
/o {
gsave
newpath
translate
1.0 setlinewidth
1 setlinejoin
0 setlinecap
0 -3 m
0.795609 -3 1.55874 -2.683901 2.12132 -2.12132 c
2.683901 -1.55874 3 -0.795609 3 0 c
3 0.795609 2.683901 1.55874 2.12132 2.12132 c
1.55874 2.683901 0.795609 3 0 3 c
-0.795609 3 -1.55874 2.683901 -2.12132 2.12132 c
-2.683901 1.55874 -3 0.795609 -3 0 c
-3 -0.795609 -2.683901 -1.55874 -2.12132 -2.12132 c
-1.55874 -2.683901 -0.795609 -3 0 -3 c
cl

gsave
0.839 0.153 0.157 setrgbcolor
fill
grestore
stroke
grestore
} bind def
318.122 264.883 o
361.875 262.472 o
426.87 262.472 o
grestore
1.500 setlinewidth
1 setlinecap
gsave
691.9 66.53 111.6 226.2 clipbox
318.121991 188.351374 m
318.121991 264.882678 l
stroke
grestore
gsave
691.9 66.53 111.6 226.2 clipbox
361.875098 188.351374 m
361.875098 262.472243 l
stroke
grestore
gsave
691.9 66.53 111.6 226.2 clipbox
426.870223 188.351374 m
426.870223 262.472243 l
stroke
grestore
1.000 setlinewidth
0 setlinecap
gsave
691.9 66.53 111.6 226.2 clipbox
/o {
gsave
newpath
translate
1.0 setlinewidth
1 setlinejoin
0 setlinecap
0 -3 m
0.795609 -3 1.55874 -2.683901 2.12132 -2.12132 c
2.683901 -1.55874 3 -0.795609 3 0 c
3 0.795609 2.683901 1.55874 2.12132 2.12132 c
1.55874 2.683901 0.795609 3 0 3 c
-0.795609 3 -1.55874 2.683901 -2.12132 2.12132 c
-2.683901 1.55874 -3 0.795609 -3 0 c
-3 -0.795609 -2.683901 -1.55874 -2.12132 -2.12132 c
-1.55874 -2.683901 -0.795609 -3 0 -3 c
cl

gsave
0.839 0.153 0.157 setrgbcolor
fill
grestore
stroke
grestore
} bind def
485.712 264.883 o
508.981 265.485 o
grestore
1.500 setlinewidth
1 setlinecap
gsave
691.9 66.53 111.6 226.2 clipbox
485.711637 188.351374 m
485.711637 264.882678 l
stroke
grestore
gsave
691.9 66.53 111.6 226.2 clipbox
508.98076 188.351374 m
508.98076 265.485287 l
stroke
grestore
1.000 setlinewidth
0 setlinecap
gsave
691.9 66.53 111.6 226.2 clipbox
/o {
gsave
newpath
translate
1.0 setlinewidth
1 setlinejoin
0 setlinecap
0 -3 m
0.795609 -3 1.55874 -2.683901 2.12132 -2.12132 c
2.683901 -1.55874 3 -0.795609 3 0 c
3 0.795609 2.683901 1.55874 2.12132 2.12132 c
1.55874 2.683901 0.795609 3 0 3 c
-0.795609 3 -1.55874 2.683901 -2.12132 2.12132 c
-2.683901 1.55874 -3 0.795609 -3 0 c
-3 -0.795609 -2.683901 -1.55874 -2.12132 -2.12132 c
-1.55874 -2.683901 -0.795609 -3 0 -3 c
cl

gsave
0.839 0.153 0.157 setrgbcolor
fill
grestore
stroke
grestore
} bind def
594.971 267.896 o
693.107 260.664 o
739.296 260.664 o
749.951 231.739 o
grestore
1.500 setlinewidth
1 setlinecap
gsave
691.9 66.53 111.6 226.2 clipbox
594.970904 188.351374 m
594.970904 267.895722 l
stroke
grestore
gsave
691.9 66.53 111.6 226.2 clipbox
693.106645 188.351374 m
693.106645 260.664417 l
stroke
grestore
gsave
691.9 66.53 111.6 226.2 clipbox
739.295685 188.351374 m
739.295685 260.664417 l
stroke
grestore
gsave
691.9 66.53 111.6 226.2 clipbox
749.950764 188.351374 m
749.950764 231.7392 l
stroke
grestore
1.250 setlinewidth
0 setlinejoin
2 setlinecap
[] 0 setdash
0.150 setgray
gsave
111.6 226.1952 m
111.6 292.7232 l
stroke
grestore
gsave
111.6 226.1952 m
803.52 226.1952 l
stroke
grestore
gsave
111.6 146.3616 m
803.52 146.3616 l
803.52 212.8896 l
111.6 212.8896 l
cl
1.000 setgray
fill
grestore
/LiberationSans findfont
14.000 scalefont
setfont
gsave
100.318750 162.675287 translate
0.000000 rotate
0.000000 0.000000 m /five glyphshow
grestore
gsave
92.537500 202.275287 translate
0.000000 rotate
0.000000 0.000000 m /one glyphshow
7.786133 0.000000 m /zero glyphshow
grestore
/LiberationSans findfont
13.000 scalefont
setfont
gsave
64.834375 148.195913 translate
90.000000 rotate
0.000000 0.000000 m /R glyphshow
9.388184 0.000000 m /i glyphshow
12.276367 0.000000 m /s glyphshow
18.776367 0.000000 m /k glyphshow
25.276367 0.000000 m /uni00A0 glyphshow
28.888184 0.000000 m /S glyphshow
37.559082 0.000000 m /c glyphshow
44.059082 0.000000 m /o glyphshow
51.289062 0.000000 m /r glyphshow
55.618164 0.000000 m /e glyphshow
grestore
gsave
691.9 66.53 111.6 146.4 clipbox
312.926469 128.1456 m
435.574852 128.1456 l
435.574852 212.8896 l
312.926469 212.8896 l
cl
0.580 0.404 0.741 setrgbcolor
fill
grestore
gsave
691.9 66.53 111.6 146.4 clipbox
680.871617 128.1456 m
803.52 128.1456 l
803.52 212.8896 l
680.871617 212.8896 l
cl
0.580 0.404 0.741 setrgbcolor
fill
grestore
gsave
691.9 66.53 111.6 146.4 clipbox
111.6 128.1456 m
780.612859 128.1456 l
780.612859 183.5856 l
111.6 183.5856 l
cl
0.173 0.627 0.173 setrgbcolor
fill
grestore
1.500 setlinewidth
1 setlinejoin
1 setlinecap
[] 0 setdash
0.173 0.627 0.173 setrgbcolor
gsave
691.9 66.53 111.6 146.4 clipbox
111.6 128.1456 m
780.612859 128.1456 l
stroke
grestore
gsave
691.9 66.53 111.6 146.4 clipbox
111.6 183.5856 m
780.612859 183.5856 l
stroke
grestore
1.000 setlinewidth
0 setlinecap
0.839 0.153 0.157 setrgbcolor
gsave
691.9 66.53 111.6 146.4 clipbox
/o {
gsave
newpath
translate
1.0 setlinewidth
1 setlinejoin
0 setlinecap
0 -3 m
0.795609 -3 1.55874 -2.683901 2.12132 -2.12132 c
2.683901 -1.55874 3 -0.795609 3 0 c
3 0.795609 2.683901 1.55874 2.12132 2.12132 c
1.55874 2.683901 0.795609 3 0 3 c
-0.795609 3 -1.55874 2.683901 -2.12132 2.12132 c
-2.683901 1.55874 -3 0.795609 -3 0 c
-3 -0.795609 -2.683901 -1.55874 -2.12132 -2.12132 c
-1.55874 -2.683901 -0.795609 -3 0 -3 c
cl

gsave
0.839 0.153 0.157 setrgbcolor
fill
grestore
stroke
grestore
} bind def
172.924 151.906 o
grestore
1.500 setlinewidth
1 setlinecap
gsave
691.9 66.53 111.6 146.4 clipbox
172.924191 128.1456 m
172.924191 151.9056 l
stroke
grestore
1.000 setlinewidth
0 setlinecap
gsave
691.9 66.53 111.6 146.4 clipbox
/o {
gsave
newpath
translate
1.0 setlinewidth
1 setlinejoin
0 setlinecap
0 -3 m
0.795609 -3 1.55874 -2.683901 2.12132 -2.12132 c
2.683901 -1.55874 3 -0.795609 3 0 c
3 0.795609 2.683901 1.55874 2.12132 2.12132 c
1.55874 2.683901 0.795609 3 0 3 c
-0.795609 3 -1.55874 2.683901 -2.12132 2.12132 c
-2.683901 1.55874 -3 0.795609 -3 0 c
-3 -0.795609 -2.683901 -1.55874 -2.12132 -2.12132 c
-1.55874 -2.683901 -0.795609 -3 0 -3 c
cl

gsave
0.839 0.153 0.157 setrgbcolor
fill
grestore
stroke
grestore
} bind def
142.262 151.906 o
230.416 159.826 o
grestore
1.500 setlinewidth
1 setlinecap
gsave
691.9 66.53 111.6 146.4 clipbox
142.262096 128.1456 m
142.262096 151.9056 l
stroke
grestore
gsave
691.9 66.53 111.6 146.4 clipbox
230.415621 128.1456 m
230.415621 159.8256 l
stroke
grestore
1.000 setlinewidth
0 setlinecap
gsave
691.9 66.53 111.6 146.4 clipbox
/o {
gsave
newpath
translate
1.0 setlinewidth
1 setlinejoin
0 setlinecap
0 -3 m
0.795609 -3 1.55874 -2.683901 2.12132 -2.12132 c
2.683901 -1.55874 3 -0.795609 3 0 c
3 0.795609 2.683901 1.55874 2.12132 2.12132 c
1.55874 2.683901 0.795609 3 0 3 c
-0.795609 3 -1.55874 2.683901 -2.12132 2.12132 c
-2.683901 1.55874 -3 0.795609 -3 0 c
-3 -0.795609 -2.683901 -1.55874 -2.12132 -2.12132 c
-1.55874 -2.683901 -0.795609 -3 0 -3 c
cl

gsave
0.839 0.153 0.157 setrgbcolor
fill
grestore
stroke
grestore
} bind def
318.122 151.906 o
361.875 151.906 o
426.87 151.906 o
grestore
1.500 setlinewidth
1 setlinecap
gsave
691.9 66.53 111.6 146.4 clipbox
318.121991 128.1456 m
318.121991 151.9056 l
stroke
grestore
gsave
691.9 66.53 111.6 146.4 clipbox
361.875098 128.1456 m
361.875098 151.9056 l
stroke
grestore
gsave
691.9 66.53 111.6 146.4 clipbox
426.870223 128.1456 m
426.870223 151.9056 l
stroke
grestore
1.000 setlinewidth
0 setlinecap
gsave
691.9 66.53 111.6 146.4 clipbox
/o {
gsave
newpath
translate
1.0 setlinewidth
1 setlinejoin
0 setlinecap
0 -3 m
0.795609 -3 1.55874 -2.683901 2.12132 -2.12132 c
2.683901 -1.55874 3 -0.795609 3 0 c
3 0.795609 2.683901 1.55874 2.12132 2.12132 c
1.55874 2.683901 0.795609 3 0 3 c
-0.795609 3 -1.55874 2.683901 -2.12132 2.12132 c
-2.683901 1.55874 -3 0.795609 -3 0 c
-3 -0.795609 -2.683901 -1.55874 -2.12132 -2.12132 c
-1.55874 -2.683901 -0.795609 -3 0 -3 c
cl

gsave
0.839 0.153 0.157 setrgbcolor
fill
grestore
stroke
grestore
} bind def
485.712 151.906 o
508.981 151.906 o
grestore
1.500 setlinewidth
1 setlinecap
gsave
691.9 66.53 111.6 146.4 clipbox
485.711637 128.1456 m
485.711637 151.9056 l
stroke
grestore
gsave
691.9 66.53 111.6 146.4 clipbox
508.98076 128.1456 m
508.98076 151.9056 l
stroke
grestore
1.000 setlinewidth
0 setlinecap
gsave
691.9 66.53 111.6 146.4 clipbox
/o {
gsave
newpath
translate
1.0 setlinewidth
1 setlinejoin
0 setlinecap
0 -3 m
0.795609 -3 1.55874 -2.683901 2.12132 -2.12132 c
2.683901 -1.55874 3 -0.795609 3 0 c
3 0.795609 2.683901 1.55874 2.12132 2.12132 c
1.55874 2.683901 0.795609 3 0 3 c
-0.795609 3 -1.55874 2.683901 -2.12132 2.12132 c
-2.683901 1.55874 -3 0.795609 -3 0 c
-3 -0.795609 -2.683901 -1.55874 -2.12132 -2.12132 c
-1.55874 -2.683901 -0.795609 -3 0 -3 c
cl

gsave
0.839 0.153 0.157 setrgbcolor
fill
grestore
stroke
grestore
} bind def
594.971 151.906 o
693.107 151.906 o
739.296 175.666 o
749.951 207.346 o
grestore
1.500 setlinewidth
1 setlinecap
gsave
691.9 66.53 111.6 146.4 clipbox
594.970904 128.1456 m
594.970904 151.9056 l
stroke
grestore
gsave
691.9 66.53 111.6 146.4 clipbox
693.106645 128.1456 m
693.106645 151.9056 l
stroke
grestore
gsave
691.9 66.53 111.6 146.4 clipbox
739.295685 128.1456 m
739.295685 175.6656 l
stroke
grestore
gsave
691.9 66.53 111.6 146.4 clipbox
749.950764 128.1456 m
749.950764 207.3456 l
stroke
grestore
1.250 setlinewidth
0 setlinejoin
2 setlinecap
[] 0 setdash
0.150 setgray
gsave
111.6 146.3616 m
111.6 212.8896 l
stroke
grestore
gsave
111.6 146.3616 m
803.52 146.3616 l
stroke
grestore
gsave
111.6 66.528 m
803.52 66.528 l
803.52 133.056 l
111.6 133.056 l
cl
1.000 setgray
fill
grestore
/LiberationSans findfont
14.000 scalefont
setfont
gsave
343.588564 52.887375 translate
0.000000 rotate

grestore
gsave
307.807314 37.812375 translate
0.000000 rotate
0.000000 0.000000 m /zero glyphshow
7.786133 0.000000 m /one glyphshow
15.572266 0.000000 m /uni00AD glyphshow
20.234375 0.000000 m /zero glyphshow
28.020508 0.000000 m /five glyphshow
35.806641 0.000000 m /uni00AD glyphshow
40.468750 0.000000 m /two glyphshow
48.254883 0.000000 m /zero glyphshow
56.041016 0.000000 m /one glyphshow
63.827148 0.000000 m /eight glyphshow
grestore
gsave
711.533713 52.887375 translate
0.000000 rotate

grestore
gsave
675.752463 37.812375 translate
0.000000 rotate
0.000000 0.000000 m /zero glyphshow
7.786133 0.000000 m /one glyphshow
15.572266 0.000000 m /uni00AD glyphshow
20.234375 0.000000 m /zero glyphshow
28.020508 0.000000 m /six glyphshow
35.806641 0.000000 m /uni00AD glyphshow
40.468750 0.000000 m /two glyphshow
48.254883 0.000000 m /zero glyphshow
56.041016 0.000000 m /one glyphshow
63.827148 0.000000 m /eight glyphshow
grestore
gsave
124.058380 52.987375 translate
0.000000 rotate
0.000000 0.000000 m /one glyphshow
7.786133 0.000000 m /one glyphshow
15.572266 0.000000 m /uni00A0 glyphshow
19.461914 0.000000 m /A glyphshow
28.799805 0.000000 m /M glyphshow
grestore
gsave
189.273196 52.987375 translate
0.000000 rotate
0.000000 0.000000 m /three glyphshow
7.786133 0.000000 m /uni00A0 glyphshow
11.675781 0.000000 m /P glyphshow
21.013672 0.000000 m /M glyphshow
grestore
gsave
250.597388 52.987375 translate
0.000000 rotate
0.000000 0.000000 m /seven glyphshow
7.786133 0.000000 m /uni00A0 glyphshow
11.675781 0.000000 m /P glyphshow
21.013672 0.000000 m /M glyphshow
grestore
gsave
308.030954 52.987375 translate
0.000000 rotate
0.000000 0.000000 m /one glyphshow
7.786133 0.000000 m /one glyphshow
15.572266 0.000000 m /uni00A0 glyphshow
19.461914 0.000000 m /P glyphshow
28.799805 0.000000 m /M glyphshow
grestore
gsave
373.245771 52.987375 translate
0.000000 rotate
0.000000 0.000000 m /three glyphshow
7.786133 0.000000 m /uni00A0 glyphshow
11.675781 0.000000 m /A glyphshow
21.013672 0.000000 m /M glyphshow
grestore
gsave
434.569962 52.987375 translate
0.000000 rotate
0.000000 0.000000 m /seven glyphshow
7.786133 0.000000 m /uni00A0 glyphshow
11.675781 0.000000 m /A glyphshow
21.013672 0.000000 m /M glyphshow
grestore
gsave
492.003528 52.987375 translate
0.000000 rotate
0.000000 0.000000 m /one glyphshow
7.786133 0.000000 m /one glyphshow
15.572266 0.000000 m /uni00A0 glyphshow
19.461914 0.000000 m /A glyphshow
28.799805 0.000000 m /M glyphshow
grestore
gsave
557.218345 52.987375 translate
0.000000 rotate
0.000000 0.000000 m /three glyphshow
7.786133 0.000000 m /uni00A0 glyphshow
11.675781 0.000000 m /P glyphshow
21.013672 0.000000 m /M glyphshow
grestore
gsave
618.542536 52.987375 translate
0.000000 rotate
0.000000 0.000000 m /seven glyphshow
7.786133 0.000000 m /uni00A0 glyphshow
11.675781 0.000000 m /P glyphshow
21.013672 0.000000 m /M glyphshow
grestore
gsave
675.976103 52.987375 translate
0.000000 rotate
0.000000 0.000000 m /one glyphshow
7.786133 0.000000 m /one glyphshow
15.572266 0.000000 m /uni00A0 glyphshow
19.461914 0.000000 m /P glyphshow
28.799805 0.000000 m /M glyphshow
grestore
gsave
741.190919 52.987375 translate
0.000000 rotate
0.000000 0.000000 m /three glyphshow
7.786133 0.000000 m /uni00A0 glyphshow
11.675781 0.000000 m /A glyphshow
21.013672 0.000000 m /M glyphshow
grestore
/LiberationSans findfont
13.000 scalefont
setfont
gsave
65.896875 83.877938 translate
90.000000 rotate
0.000000 0.000000 m /L glyphshow
7.229980 0.000000 m /a glyphshow
14.459961 0.000000 m /b glyphshow
21.689941 0.000000 m /e glyphshow
28.919922 0.000000 m /l glyphshow
grestore
gsave
691.9 66.53 111.6 66.53 clipbox
312.926469 66.528 m
435.574852 66.528 l
435.574852 133.056 l
312.926469 133.056 l
cl
0.580 0.404 0.741 setrgbcolor
fill
grestore
gsave
691.9 66.53 111.6 66.53 clipbox
680.871617 66.528 m
803.52 66.528 l
803.52 133.056 l
680.871617 133.056 l
cl
0.580 0.404 0.741 setrgbcolor
fill
grestore
gsave
111.6 66.528 m
803.52 66.528 l
stroke
grestore

end
showpage
